Statistical Thinking using Randomisation and Simulation
…
- Random number tables (old fashioned) deliver single digits 0, 1, ..., 9
- When using these you need to ensure that you map these digits or combinations of the digits to match the probabilities of events
- For example, use random numbers to sample students from class
    + There are 188 students in the class
    + Each student, or possible group of students, needs to have an equal chance of being selected
    + Need to use three sequential digits
    + BUT there are 1000 three digit numbers, so either we will throw away 822 of them, or we could map a person to multiple numbers (5) and throw away only 60
    + If any person is selected more than once, throw out repeats

---
# Assign every class member a number 

```
#> # A tibble: 188 x 4
#>        first     last section number
#>        <chr>    <chr>   <chr>  <chr>
#>  1     Ahmed    Nehal    2420    000
#>  2       Ang      Xin    2420    001
#>  3   Bradley    Tyler    2420    002
#>  4       Bui    Hoang    2420    003
#>  5       Bui   Nathan    2420    004
#>  6   Bundhoo Mokshada    2420    005
#>  7   Bundhoo  Urvashi    2420    006
#>  8 Castricum     Liam    2420    007
#>  9  Cavanagh    James    2420    008
#> 10      Chan   Ernest    2420    009
#> # ... with 178 more rows
```
…
