Statistical Methods for Insurance: Compiling data for problem solving
…
## Pipes

- Pipes historically enable data analysis pipelines
- Pipes allow the code to be <strong>read</strong> like a sequence of operations
- dplyr allows us to chain together these data analysis tasks using the `%>%` (pipe) operator
- `x %>% f(y)` is shorthand for `f(x, y)`
- Example:

```r
student2012.sub <- readRDS("../data/student_sub.rds")
student2012.sub %>% 
  group_by(CNT) %>% 
  tally()
#> # A tibble: 43 × 2
#>      CNT     n
#>    <chr> <int>
#> 1    ARE 11500
#> 2    AUS 14481
#> 3    AUT  4755
#> 4    BEL  8597
#> 5    BGR  5282
#> 6    BRA  5506
#> 7    CAN 21544
#> 8    CHL  6856
#> 9    COL  9073
#> 10   CZE  5327
#> # ... with 33 more rows
```
…
## Summarise

```
french_fries %>%
    group_by(time, treatment) %>%
    summarise(mean_rancid = mean(rancid), 
    sd_rancid = sd(rancid))
```

```
#> Source: local data frame [30 x 4]
#> Groups: time [?]
#> 
#>      time treatment mean_rancid sd_rancid
#>    <fctr>    <fctr>       <dbl>     <dbl>
#> 1       1         1    2.758333  3.212870
#> 2       1         2    1.716667  2.714801
#> 3       1         3    2.600000  3.202037
#> 4       2         1    3.900000  4.374730
#> 5       2         2    2.141667  3.117540
#> 6       2         3    2.495833  3.378767
#> 7       3         1    4.650000  3.933358
#> 8       3         2    2.895833  3.773532
#> 9       3         3    3.600000  3.592867
#> 10      4         1    2.079167  2.394737
#> # ... with 20 more rows
```
…
